<?xml version="1.0" encoding="UTF-8" standalone="no"?>
<!DOCTYPE svg PUBLIC "-//W3C//DTD SVG 1.1//EN"
 "http://www.w3.org/Graphics/SVG/1.1/DTD/svg11.dtd">
<!-- Generated by graphviz version 2.40.1 (20161225.0304)
 -->
<!-- Title: G Pages: 1 -->
<svg width="481pt" height="488pt"
 viewBox="0.00 0.00 481.00 488.40" xmlns="http://www.w3.org/2000/svg" xmlns:xlink="http://www.w3.org/1999/xlink">
<g id="graph0" class="graph" transform="scale(1 1) rotate(0) translate(4 484.4)">
<title>G</title>
<polygon fill="#ffffff" stroke="transparent" points="-4,4 -4,-484.4 477,-484.4 477,4 -4,4"/>
<g id="clust1" class="cluster">
<title>cluster0</title>
</g>
<g id="clust2" class="cluster">
<title>cluster1</title>
</g>
<!-- D -->
<g id="node1" class="node">
<title>D</title>
<ellipse fill="none" stroke="#000000" cx="131" cy="-446.4" rx="114.5909" ry="18"/>
<text text-anchor="middle" x="131" y="-442.2" font-family="Times,serif" font-size="14.00" fill="#000000">Connessione chiusa (dead)</text>
</g>
<!-- R -->
<g id="node2" class="node">
<title>R</title>
<polygon fill="none" stroke="#000000" points="209.8823,-302.6 148.1177,-302.6 148.1177,-266.6 209.8823,-266.6 209.8823,-302.6"/>
<text text-anchor="middle" x="179" y="-280.4" font-family="Times,serif" font-size="14.00" fill="#000000">Rilascio</text>
</g>
<!-- D&#45;&gt;R -->
<!-- I -->
<g id="node4" class="node">
<title>I</title>
<polygon fill="none" stroke="#000000" points="361.9063,-375.6 270.0937,-375.6 270.0937,-339.6 361.9063,-339.6 361.9063,-375.6"/>
<text text-anchor="middle" x="316" y="-353.4" font-family="Times,serif" font-size="14.00" fill="#000000">Instaurazione</text>
</g>
<!-- D&#45;&gt;I -->
<!-- D&#45;&gt;I -->
<g id="edge7" class="edge">
<title>D&#45;&gt;I</title>
<path fill="none" stroke="#000000" d="M169.8064,-429.3085C181.6439,-423.6889 194.5504,-417.143 206,-410.4 217.1205,-403.8508 218.2266,-399.5392 229.6844,-393.6 241.5336,-387.4579 245.6079,-388.5561 258,-383.6 261.1698,-382.3323 264.4206,-380.9912 267.6864,-379.6131"/>
<polygon fill="#000000" stroke="#000000" points="269.0717,-382.8273 276.8753,-375.6612 266.3061,-376.3968 269.0717,-382.8273"/>
<text text-anchor="middle" x="254.6578" y="-397.8" font-family="Times,serif" font-size="14.00" fill="#000000">Successo</text>
</g>
<!-- R&#45;&gt;D -->
<g id="edge15" class="edge">
<title>R&#45;&gt;D</title>
<path fill="none" stroke="#000000" d="M173.5332,-303.0276C165.1817,-331.1791 149.184,-385.1049 139.3659,-418.1999"/>
<polygon fill="#000000" stroke="#000000" points="135.9016,-417.5715 136.4129,-428.154 142.6125,-419.5624 135.9016,-417.5715"/>
<text text-anchor="middle" x="187.6578" y="-353.4" font-family="Times,serif" font-size="14.00" fill="#000000">Successo</text>
</g>
<!-- Ap -->
<g id="node3" class="node">
<title>Ap</title>
<polygon fill="none" stroke="#000000" points="210.3725,-140.8 155.6275,-140.8 155.6275,-104.8 210.3725,-104.8 210.3725,-140.8"/>
<text text-anchor="middle" x="183" y="-118.6" font-family="Times,serif" font-size="14.00" fill="#000000">Aperto</text>
</g>
<!-- R&#45;&gt;Ap -->
<!-- Au -->
<g id="node5" class="node">
<title>Au</title>
<polygon fill="none" stroke="#000000" points="370.2423,-213.8 269.7577,-213.8 269.7577,-177.8 370.2423,-177.8 370.2423,-213.8"/>
<text text-anchor="middle" x="320" y="-191.6" font-family="Times,serif" font-size="14.00" fill="#000000">Autenticazione</text>
</g>
<!-- R&#45;&gt;Au -->
<!-- Ap&#45;&gt;R -->
<g id="edge13" class="edge">
<title>Ap&#45;&gt;R</title>
<path fill="none" stroke="#000000" d="M182.5444,-141.2276C181.8515,-169.2572 180.5269,-222.8385 179.7078,-255.9689"/>
<polygon fill="#000000" stroke="#000000" points="176.1994,-256.2705 179.4511,-266.354 183.1972,-256.4436 176.1994,-256.2705"/>
<text text-anchor="middle" x="206.6578" y="-191.6" font-family="Times,serif" font-size="14.00" fill="#000000">Successo</text>
</g>
<!-- I&#45;&gt;D -->
<g id="edge8" class="edge">
<title>I&#45;&gt;D</title>
<path fill="none" stroke="#000000" d="M308.3454,-375.6212C302.5011,-387.2485 293.3454,-401.7627 281,-410.4 270.1044,-418.023 245.0908,-425.1489 218.5517,-431.0164"/>
<polygon fill="#000000" stroke="#000000" points="217.774,-427.6035 208.7285,-433.1198 219.2397,-434.4484 217.774,-427.6035"/>
<text text-anchor="middle" x="326.3191" y="-397.8" font-family="Times,serif" font-size="14.00" fill="#000000">Insuccesso</text>
</g>
<!-- I&#45;&gt;Au -->
<!-- I&#45;&gt;Au -->
<g id="edge9" class="edge">
<title>I&#45;&gt;Au</title>
<path fill="none" stroke="#000000" d="M317.7723,-339.3021C318.2547,-333.6335 318.7207,-327.3632 319,-321.6 320.6187,-288.1952 320.6588,-249.7439 320.4295,-224.2346"/>
<polygon fill="#000000" stroke="#000000" points="323.9284,-224.1077 320.3186,-214.1468 316.9289,-224.1847 323.9284,-224.1077"/>
<text text-anchor="middle" x="345.6578" y="-280.4" font-family="Times,serif" font-size="14.00" fill="#000000">Successo</text>
</g>
<!-- C -->
<g id="node6" class="node">
<title>C</title>
<polygon fill="none" stroke="#000000" points="442.2864,-52 269.7136,-52 269.7136,-16 442.2864,-16 442.2864,-52"/>
<text text-anchor="middle" x="356" y="-29.8" font-family="Times,serif" font-size="14.00" fill="#000000">Configurazione Rete (NCP)</text>
</g>
<!-- I&#45;&gt;C -->
<g id="edge10" class="edge">
<title>I&#45;&gt;C</title>
<path fill="none" stroke="#000000" d="M361.791,-339.996C384.0243,-328.1731 406,-310.0501 406,-284.6 406,-284.6 406,-284.6 406,-122.8 406,-99.5979 392.8791,-76.8644 380.0801,-60.2081"/>
<polygon fill="#000000" stroke="#000000" points="382.5057,-57.6425 373.4876,-52.0816 377.0695,-62.0526 382.5057,-57.6425"/>
<text text-anchor="middle" x="431.6578" y="-191.6" font-family="Times,serif" font-size="14.00" fill="#000000">Successo</text>
</g>
<!-- Au&#45;&gt;R -->
<g id="edge12" class="edge">
<title>Au&#45;&gt;R</title>
<path fill="none" stroke="#000000" d="M269.3414,-213.0965C257.1004,-218.2758 244.3808,-224.5441 233.3618,-231.8 221.83,-239.3936 210.6173,-249.6345 201.4,-259.0761"/>
<polygon fill="#000000" stroke="#000000" points="198.7929,-256.7391 194.4678,-266.4109 203.8803,-261.5473 198.7929,-256.7391"/>
<text text-anchor="middle" x="263.3191" y="-236" font-family="Times,serif" font-size="14.00" fill="#000000">Insuccesso</text>
</g>
<!-- Au&#45;&gt;C -->
<!-- Au&#45;&gt;C -->
<g id="edge11" class="edge">
<title>Au&#45;&gt;C</title>
<path fill="none" stroke="#000000" d="M324.0597,-177.554C330.2986,-149.5137 342.2945,-95.5988 349.6779,-62.4143"/>
<polygon fill="#000000" stroke="#000000" points="353.1444,-62.9491 351.8999,-52.4276 346.3115,-61.4287 353.1444,-62.9491"/>
<text text-anchor="middle" x="366.6578" y="-118.6" font-family="Times,serif" font-size="14.00" fill="#000000">Successo</text>
</g>
<!-- C&#45;&gt;Ap -->
<g id="edge14" class="edge">
<title>C&#45;&gt;Ap</title>
<path fill="none" stroke="#000000" d="M283.6714,-52.004C269.6227,-56.8651 255.3425,-62.8205 242.6844,-70 229.7387,-77.3426 217.1336,-87.8381 206.8689,-97.5399"/>
<polygon fill="#000000" stroke="#000000" points="204.2103,-95.2444 199.5087,-104.739 209.105,-100.2487 204.2103,-95.2444"/>
<text text-anchor="middle" x="267.6578" y="-74.2" font-family="Times,serif" font-size="14.00" fill="#000000">Successo</text>
</g>
</g>
<!--
digraph G {
    rankdir=TB
    
    subgraph cluster0 {
        peripheries=0
        D[label="Connessione chiusa (dead)", shape="ellipse"]
        R[label="Rilascio", shape="rectangle"]
        Ap[label="Aperto", shape="rectangle"]
        D->R->Ap [style=invis]
    }
    
    subgraph cluster1 {
        peripheries=0
        I[label="Instaurazione", shape="rectangle"]
        Au[label="Autenticazione", shape="rectangle"]
        C[label="Configurazione Rete (NCP)", shape="rectangle"]
        D->I->Au->C [style=invis]
        R->Au [style=invis]
    }
    
    D->I[label="Successo"]
    I->D[label="Insuccesso"]
    I->Au[label="Successo"]
    I->C[label="Successo"]
    Au->C[label="Successo"]
    Au->R[label="Insuccesso"]
    Ap->R[label="Successo"]
    C->Ap[label="Successo"]
    R->D[label="Successo"]

}
-->
</svg>