<?xml version="1.0" encoding="UTF-8" standalone="no"?>
<!DOCTYPE svg PUBLIC "-//W3C//DTD SVG 1.1//EN"
 "http://www.w3.org/Graphics/SVG/1.1/DTD/svg11.dtd">
<!-- Generated by graphviz version 2.40.1 (20161225.0304)
 -->
<!-- Title: G Pages: 1 -->
<svg width="544pt" height="209pt"
 viewBox="0.00 0.00 544.00 209.00" xmlns="http://www.w3.org/2000/svg" xmlns:xlink="http://www.w3.org/1999/xlink">
<g id="graph0" class="graph" transform="scale(1 1) rotate(0) translate(4 205)">
<title>G</title>
<polygon fill="#ffffff" stroke="transparent" points="-4,4 -4,-205 540,-205 540,4 -4,4"/>
<g id="clust10" class="cluster">
<title>cluster_0</title>
<polygon fill="none" stroke="#000000" points="8,-62 8,-139 78,-139 78,-62 8,-62"/>
<text text-anchor="middle" x="43" y="-122.4" font-family="Times,serif" font-size="14.00" fill="#000000">t0</text>
</g>
<g id="clust11" class="cluster">
<title>cluster_1</title>
<polygon fill="none" stroke="#000000" points="98,-35 98,-166 168,-166 168,-35 98,-35"/>
<text text-anchor="middle" x="133" y="-149.4" font-family="Times,serif" font-size="14.00" fill="#000000">t1</text>
</g>
<g id="clust12" class="cluster">
<title>cluster_2</title>
<polygon fill="none" stroke="#000000" points="188,-8 188,-193 258,-193 258,-8 188,-8"/>
<text text-anchor="middle" x="223" y="-176.4" font-family="Times,serif" font-size="14.00" fill="#000000">t2</text>
</g>
<g id="clust13" class="cluster">
<title>cluster_3</title>
<polygon fill="none" stroke="#000000" points="278,-8 278,-193 348,-193 348,-8 278,-8"/>
<text text-anchor="middle" x="313" y="-176.4" font-family="Times,serif" font-size="14.00" fill="#000000">t3</text>
</g>
<g id="clust14" class="cluster">
<title>cluster_4</title>
<polygon fill="none" stroke="#000000" points="368,-8 368,-193 438,-193 438,-8 368,-8"/>
<text text-anchor="middle" x="403" y="-176.4" font-family="Times,serif" font-size="14.00" fill="#000000">t4</text>
</g>
<g id="clust15" class="cluster">
<title>cluster_5</title>
<polygon fill="none" stroke="#000000" points="458,-8 458,-193 528,-193 528,-8 458,-8"/>
<text text-anchor="middle" x="493" y="-176.4" font-family="Times,serif" font-size="14.00" fill="#000000">t5</text>
</g>
<!-- i1 -->
<g id="node1" class="node">
<title>i1</title>
<ellipse fill="none" stroke="#000000" cx="43" cy="-88" rx="27" ry="18"/>
<text text-anchor="middle" x="43" y="-83.8" font-family="Times,serif" font-size="14.00" fill="#000000">i1</text>
</g>
<!-- i2 -->
<g id="node2" class="node">
<title>i2</title>
<ellipse fill="none" stroke="#000000" cx="133" cy="-115" rx="27" ry="18"/>
<text text-anchor="middle" x="133" y="-110.8" font-family="Times,serif" font-size="14.00" fill="#000000">i2</text>
</g>
<!-- i1&#45;&gt;i2 -->
<g id="edge1" class="edge">
<title>i1&#45;&gt;i2</title>
<path fill="none" stroke="#000000" d="M68.07,-95.521C77.5102,-98.3531 88.4169,-101.6251 98.564,-104.6692"/>
<polygon fill="#000000" stroke="#000000" points="97.7915,-108.0915 108.3755,-107.6126 99.803,-101.3867 97.7915,-108.0915"/>
</g>
<!-- k1 -->
<g id="node3" class="node">
<title>k1</title>
<ellipse fill="none" stroke="#000000" cx="133" cy="-61" rx="27" ry="18"/>
<text text-anchor="middle" x="133" y="-56.8" font-family="Times,serif" font-size="14.00" fill="#000000">k1</text>
</g>
<!-- i1&#45;&gt;k1 -->
<g id="edge2" class="edge">
<title>i1&#45;&gt;k1</title>
<path fill="none" stroke="#000000" d="M68.07,-80.479C77.5102,-77.6469 88.4169,-74.3749 98.564,-71.3308"/>
<polygon fill="#000000" stroke="#000000" points="99.803,-74.6133 108.3755,-68.3874 97.7915,-67.9085 99.803,-74.6133"/>
</g>
<!-- i3 -->
<g id="node4" class="node">
<title>i3</title>
<ellipse fill="none" stroke="#000000" cx="223" cy="-142" rx="27" ry="18"/>
<text text-anchor="middle" x="223" y="-137.8" font-family="Times,serif" font-size="14.00" fill="#000000">i3</text>
</g>
<!-- i2&#45;&gt;i3 -->
<g id="edge3" class="edge">
<title>i2&#45;&gt;i3</title>
<path fill="none" stroke="#000000" d="M158.07,-122.521C167.5102,-125.3531 178.4169,-128.6251 188.564,-131.6692"/>
<polygon fill="#000000" stroke="#000000" points="187.7915,-135.0915 198.3755,-134.6126 189.803,-128.3867 187.7915,-135.0915"/>
</g>
<!-- k2 -->
<g id="node5" class="node">
<title>k2</title>
<ellipse fill="none" stroke="#000000" cx="223" cy="-88" rx="27" ry="18"/>
<text text-anchor="middle" x="223" y="-83.8" font-family="Times,serif" font-size="14.00" fill="#000000">k2</text>
</g>
<!-- i2&#45;&gt;k2 -->
<g id="edge4" class="edge">
<title>i2&#45;&gt;k2</title>
<path fill="none" stroke="#000000" d="M158.07,-107.479C167.5102,-104.6469 178.4169,-101.3749 188.564,-98.3308"/>
<polygon fill="#000000" stroke="#000000" points="189.803,-101.6133 198.3755,-95.3874 187.7915,-94.9085 189.803,-101.6133"/>
</g>
<!-- k1&#45;&gt;k2 -->
<g id="edge11" class="edge">
<title>k1&#45;&gt;k2</title>
<path fill="none" stroke="#000000" d="M158.07,-68.521C167.5102,-71.3531 178.4169,-74.6251 188.564,-77.6692"/>
<polygon fill="#000000" stroke="#000000" points="187.7915,-81.0915 198.3755,-80.6126 189.803,-74.3867 187.7915,-81.0915"/>
</g>
<!-- o1 -->
<g id="node12" class="node">
<title>o1</title>
<ellipse fill="none" stroke="#000000" cx="223" cy="-34" rx="27" ry="18"/>
<text text-anchor="middle" x="223" y="-29.8" font-family="Times,serif" font-size="14.00" fill="#000000">o1</text>
</g>
<!-- k1&#45;&gt;o1 -->
<g id="edge12" class="edge">
<title>k1&#45;&gt;o1</title>
<path fill="none" stroke="#000000" d="M158.07,-53.479C167.5102,-50.6469 178.4169,-47.3749 188.564,-44.3308"/>
<polygon fill="#000000" stroke="#000000" points="189.803,-47.6133 198.3755,-41.3874 187.7915,-40.9085 189.803,-47.6133"/>
</g>
<!-- i4 -->
<g id="node6" class="node">
<title>i4</title>
<ellipse fill="none" stroke="#000000" cx="313" cy="-142" rx="27" ry="18"/>
<text text-anchor="middle" x="313" y="-137.8" font-family="Times,serif" font-size="14.00" fill="#000000">i4</text>
</g>
<!-- i3&#45;&gt;i4 -->
<g id="edge5" class="edge">
<title>i3&#45;&gt;i4</title>
<path fill="none" stroke="#000000" d="M250.003,-142C258.0277,-142 266.9665,-142 275.5309,-142"/>
<polygon fill="#000000" stroke="#000000" points="275.7051,-145.5001 285.705,-142 275.705,-138.5001 275.7051,-145.5001"/>
</g>
<!-- k3 -->
<g id="node7" class="node">
<title>k3</title>
<ellipse fill="none" stroke="#000000" cx="313" cy="-88" rx="27" ry="18"/>
<text text-anchor="middle" x="313" y="-83.8" font-family="Times,serif" font-size="14.00" fill="#000000">k3</text>
</g>
<!-- i3&#45;&gt;k3 -->
<g id="edge6" class="edge">
<title>i3&#45;&gt;k3</title>
<path fill="none" stroke="#000000" d="M243.4224,-129.7466C255.3897,-122.5662 270.7024,-113.3785 283.9143,-105.4514"/>
<polygon fill="#000000" stroke="#000000" points="285.8842,-108.3512 292.6584,-100.2049 282.2827,-102.3487 285.8842,-108.3512"/>
</g>
<!-- k2&#45;&gt;k3 -->
<g id="edge13" class="edge">
<title>k2&#45;&gt;k3</title>
<path fill="none" stroke="#000000" d="M250.003,-88C258.0277,-88 266.9665,-88 275.5309,-88"/>
<polygon fill="#000000" stroke="#000000" points="275.7051,-91.5001 285.705,-88 275.705,-84.5001 275.7051,-91.5001"/>
</g>
<!-- o2 -->
<g id="node13" class="node">
<title>o2</title>
<ellipse fill="none" stroke="#000000" cx="313" cy="-34" rx="27" ry="18"/>
<text text-anchor="middle" x="313" y="-29.8" font-family="Times,serif" font-size="14.00" fill="#000000">o2</text>
</g>
<!-- k2&#45;&gt;o2 -->
<g id="edge14" class="edge">
<title>k2&#45;&gt;o2</title>
<path fill="none" stroke="#000000" d="M243.4224,-75.7466C255.3897,-68.5662 270.7024,-59.3785 283.9143,-51.4514"/>
<polygon fill="#000000" stroke="#000000" points="285.8842,-54.3512 292.6584,-46.2049 282.2827,-48.3487 285.8842,-54.3512"/>
</g>
<!-- i5 -->
<g id="node8" class="node">
<title>i5</title>
<ellipse fill="none" stroke="#000000" cx="403" cy="-142" rx="27" ry="18"/>
<text text-anchor="middle" x="403" y="-137.8" font-family="Times,serif" font-size="14.00" fill="#000000">i5</text>
</g>
<!-- i4&#45;&gt;i5 -->
<g id="edge7" class="edge">
<title>i4&#45;&gt;i5</title>
<path fill="none" stroke="#000000" d="M340.003,-142C348.0277,-142 356.9665,-142 365.5309,-142"/>
<polygon fill="#000000" stroke="#000000" points="365.7051,-145.5001 375.705,-142 365.705,-138.5001 365.7051,-145.5001"/>
</g>
<!-- k4 -->
<g id="node9" class="node">
<title>k4</title>
<ellipse fill="none" stroke="#000000" cx="403" cy="-88" rx="27" ry="18"/>
<text text-anchor="middle" x="403" y="-83.8" font-family="Times,serif" font-size="14.00" fill="#000000">k4</text>
</g>
<!-- i4&#45;&gt;k4 -->
<g id="edge8" class="edge">
<title>i4&#45;&gt;k4</title>
<path fill="none" stroke="#000000" d="M333.4224,-129.7466C345.3897,-122.5662 360.7024,-113.3785 373.9143,-105.4514"/>
<polygon fill="#000000" stroke="#000000" points="375.8842,-108.3512 382.6584,-100.2049 372.2827,-102.3487 375.8842,-108.3512"/>
</g>
<!-- k3&#45;&gt;k4 -->
<g id="edge15" class="edge">
<title>k3&#45;&gt;k4</title>
<path fill="none" stroke="#000000" d="M340.003,-88C348.0277,-88 356.9665,-88 365.5309,-88"/>
<polygon fill="#000000" stroke="#000000" points="365.7051,-91.5001 375.705,-88 365.705,-84.5001 365.7051,-91.5001"/>
</g>
<!-- o3 -->
<g id="node14" class="node">
<title>o3</title>
<ellipse fill="none" stroke="#000000" cx="403" cy="-34" rx="27" ry="18"/>
<text text-anchor="middle" x="403" y="-29.8" font-family="Times,serif" font-size="14.00" fill="#000000">o3</text>
</g>
<!-- k3&#45;&gt;o3 -->
<g id="edge16" class="edge">
<title>k3&#45;&gt;o3</title>
<path fill="none" stroke="#000000" d="M333.4224,-75.7466C345.3897,-68.5662 360.7024,-59.3785 373.9143,-51.4514"/>
<polygon fill="#000000" stroke="#000000" points="375.8842,-54.3512 382.6584,-46.2049 372.2827,-48.3487 375.8842,-54.3512"/>
</g>
<!-- i6 -->
<g id="node10" class="node">
<title>i6</title>
<ellipse fill="none" stroke="#000000" cx="493" cy="-142" rx="27" ry="18"/>
<text text-anchor="middle" x="493" y="-137.8" font-family="Times,serif" font-size="14.00" fill="#000000">i6</text>
</g>
<!-- i5&#45;&gt;i6 -->
<g id="edge9" class="edge">
<title>i5&#45;&gt;i6</title>
<path fill="none" stroke="#000000" d="M430.003,-142C438.0277,-142 446.9665,-142 455.5309,-142"/>
<polygon fill="#000000" stroke="#000000" points="455.7051,-145.5001 465.705,-142 455.705,-138.5001 455.7051,-145.5001"/>
</g>
<!-- k5 -->
<g id="node11" class="node">
<title>k5</title>
<ellipse fill="none" stroke="#000000" cx="493" cy="-88" rx="27" ry="18"/>
<text text-anchor="middle" x="493" y="-83.8" font-family="Times,serif" font-size="14.00" fill="#000000">k5</text>
</g>
<!-- i5&#45;&gt;k5 -->
<g id="edge10" class="edge">
<title>i5&#45;&gt;k5</title>
<path fill="none" stroke="#000000" d="M423.4224,-129.7466C435.3897,-122.5662 450.7024,-113.3785 463.9143,-105.4514"/>
<polygon fill="#000000" stroke="#000000" points="465.8842,-108.3512 472.6584,-100.2049 462.2827,-102.3487 465.8842,-108.3512"/>
</g>
<!-- k4&#45;&gt;k5 -->
<g id="edge17" class="edge">
<title>k4&#45;&gt;k5</title>
<path fill="none" stroke="#000000" d="M430.003,-88C438.0277,-88 446.9665,-88 455.5309,-88"/>
<polygon fill="#000000" stroke="#000000" points="455.7051,-91.5001 465.705,-88 455.705,-84.5001 455.7051,-91.5001"/>
</g>
<!-- o4 -->
<g id="node15" class="node">
<title>o4</title>
<ellipse fill="none" stroke="#000000" cx="493" cy="-34" rx="27" ry="18"/>
<text text-anchor="middle" x="493" y="-29.8" font-family="Times,serif" font-size="14.00" fill="#000000">o4</text>
</g>
<!-- k4&#45;&gt;o4 -->
<g id="edge18" class="edge">
<title>k4&#45;&gt;o4</title>
<path fill="none" stroke="#000000" d="M423.4224,-75.7466C435.3897,-68.5662 450.7024,-59.3785 463.9143,-51.4514"/>
<polygon fill="#000000" stroke="#000000" points="465.8842,-54.3512 472.6584,-46.2049 462.2827,-48.3487 465.8842,-54.3512"/>
</g>
<!-- o1&#45;&gt;o2 -->
<g id="edge19" class="edge">
<title>o1&#45;&gt;o2</title>
<path fill="none" stroke="#000000" d="M250.003,-34C258.0277,-34 266.9665,-34 275.5309,-34"/>
<polygon fill="#000000" stroke="#000000" points="275.7051,-37.5001 285.705,-34 275.705,-30.5001 275.7051,-37.5001"/>
</g>
<!-- o2&#45;&gt;o3 -->
<g id="edge20" class="edge">
<title>o2&#45;&gt;o3</title>
<path fill="none" stroke="#000000" d="M340.003,-34C348.0277,-34 356.9665,-34 365.5309,-34"/>
<polygon fill="#000000" stroke="#000000" points="365.7051,-37.5001 375.705,-34 365.705,-30.5001 365.7051,-37.5001"/>
</g>
<!-- o3&#45;&gt;o4 -->
<g id="edge21" class="edge">
<title>o3&#45;&gt;o4</title>
<path fill="none" stroke="#000000" d="M430.003,-34C438.0277,-34 446.9665,-34 455.5309,-34"/>
<polygon fill="#000000" stroke="#000000" points="455.7051,-37.5001 465.705,-34 455.705,-30.5001 455.7051,-37.5001"/>
</g>
</g>
</svg>
